<?xml version="1.0" encoding="iso-8859-1"?>
<!-- Generator: Adobe Illustrator 19.0.0, SVG Export Plug-In . SVG Version: 6.00 Build 0)  -->
<svg xmlns="http://www.w3.org/2000/svg" xmlns:xlink="http://www.w3.org/1999/xlink" version="1.1" id="Layer_1" x="0px" y="0px" viewBox="0 0 512 512" style="enable-background:new 0 0 512 512;" xml:space="preserve" width="512px" height="512px">
<g>
	<g>
		<path d="M0,111.81v96.622l16.552-0.93c1.037-0.059,1.951-0.087,2.796-0.087c26.79,0,48.585,21.794,48.585,48.585    s-21.794,48.585-48.585,48.585c-0.829,0-1.748-0.028-2.809-0.088L0,303.581v96.608h512V111.81H0z M480.653,368.843H31.347v-33.81    C69.748,329.226,99.28,295.996,99.28,256s-29.532-73.226-67.933-79.033v-33.81h449.306V368.843z" fill="#FFFFFF"/>
	</g>
</g>
<g>
	<g>
		<rect x="154.749" y="201.791" width="31.347" height="21.287" fill="#FFFFFF"/>
	</g>
</g>
<g>
	<g>
		<rect x="154.749" y="159.222" width="31.347" height="21.287" fill="#FFFFFF"/>
	</g>
</g>
<g>
	<g>
		<rect x="154.749" y="329.509" width="31.347" height="21.287" fill="#FFFFFF"/>
	</g>
</g>
<g>
	<g>
		<rect x="154.749" y="244.37" width="31.347" height="21.287" fill="#FFFFFF"/>
	</g>
</g>
<g>
	<g>
		<rect x="154.749" y="286.939" width="31.347" height="21.287" fill="#FFFFFF"/>
	</g>
</g>
<g>
	<g>
		<path d="M448.7,229.886l-69.959-10.166l-31.287-63.394l-31.286,63.394l-69.96,10.166l50.624,49.345L284.88,348.91l62.574-32.898    l62.575,32.897l-11.952-69.678L448.7,229.886z M368.394,291.607l-20.942-11.009l-20.941,11.008l4-23.317l-16.942-16.515    l23.413-3.402l10.471-21.217l10.471,21.217l23.412,3.402l-16.942,16.515L368.394,291.607z" fill="#FFFFFF"/>
	</g>
</g>
<g>
</g>
<g>
</g>
<g>
</g>
<g>
</g>
<g>
</g>
<g>
</g>
<g>
</g>
<g>
</g>
<g>
</g>
<g>
</g>
<g>
</g>
<g>
</g>
<g>
</g>
<g>
</g>
<g>
</g>
</svg>
