<?xml version="1.0" encoding="iso-8859-1"?>
<!-- Generator: Adobe Illustrator 19.0.0, SVG Export Plug-In . SVG Version: 6.00 Build 0)  -->
<svg version="1.1" id="Capa_1" xmlns="http://www.w3.org/2000/svg" xmlns:xlink="http://www.w3.org/1999/xlink" x="0px" y="0px"
	 viewBox="0 0 480 480" style="enable-background:new 0 0 480 480;" xml:space="preserve">
<path style="fill:#B139D8;" d="M472,200c0-17.672-14.328-32-32-32h-56v96v-96h-48l-96-64v56l96,64v248h48V312v160h48V320V216v104h40
	V200z"/>
<polygon style="fill:#406AF2;" points="120,168 96,168 72,168 96,216 "/>
<g>
	<path style="fill:#FFC931;" d="M144,168h-24l-24,48l-24-48H40c-17.672,0-32,14.328-32,32v120h40V216v104v152h48V312v160h48V224
		l96-64v-56L144,168z"/>
	<path style="fill:#FFC931;" d="M144,120c0-26.512-21.488-48-48-48s-48,21.488-48,48s21.488,48,48,48S144,146.512,144,120z M104,128
		c0,13.264,10.736,24,24,24C114.736,152,104,141.264,104,128z"/>
</g>
<path style="fill:#B139D8;" d="M432,120c0-26.512-21.488-48-48-48s-48,21.488-48,48s21.488,48,48,48S432,146.512,432,120z M352,152
	c13.264,0,24-10.736,24-24C376,141.264,365.264,152,352,152z"/>
<path style="fill:#4BDDDD;" d="M288,56c0-26.512-21.488-48-48-48s-48,21.488-48,48s21.488,48,48,48S288,82.512,288,56z M240,80V56
	h-24h24V32v24h24h-24V80z"/>
<g>
	<path style="fill:#2A0E54;" d="M440,160h-16.888C433.52,149.824,440,135.664,440,120c0-30.872-25.12-56-56-56s-56,25.128-56,56
		c0,15.664,6.48,29.824,16.888,40h-6.464l-77.912-51.944C281.256,99.848,296,79.632,296,56c0-30.872-25.12-56-56-56
		s-56,25.128-56,56c0,23.632,14.744,43.848,35.496,52.056L141.576,160h-6.464C145.52,149.824,152,135.664,152,120
		c0-30.872-25.12-56-56-56s-56,25.128-56,56c0,15.664,6.48,29.824,16.888,40H40c-22.056,0-40,17.944-40,40v120c0,4.424,3.584,8,8,8
		h32v144c0,4.424,3.584,8,8,8h48h48c4.416,0,8-3.576,8-8V228.28l88-58.664l88,58.664V472c0,4.424,3.584,8,8,8h48h48
		c4.416,0,8-3.576,8-8V328h32c4.416,0,8-3.576,8-8V200C480,177.944,462.056,160,440,160z M344,120c0-22.056,17.944-40,40-40
		s40,17.944,40,40s-17.944,40-40,40c-6.088,0-11.8-1.472-16.976-3.92C377.072,150.68,384,140.192,384,128h-16
		c0,8.752-7.072,15.88-15.808,15.984C347.12,137.28,344,129.032,344,120z M200,56c0-22.056,17.944-40,40-40s40,17.944,40,40
		s-17.944,40-40,40S200,78.056,200,56z M107.056,176L96,198.112L84.944,176H107.056z M56,120c0-22.056,17.944-40,40-40
		s40,17.944,40,40c0,9.032-3.12,17.28-8.192,23.984C119.072,143.88,112,136.752,112,128H96c0,12.192,6.928,22.68,16.976,28.08
		C107.8,158.528,102.088,160,96,160C73.944,160,56,142.056,56,120z M139.56,217.344c-2.224,1.488-3.56,3.984-3.56,6.656v240h-32V312
		H88v152H56V216H40v96H16V200c0-13.232,10.768-24,24-24h27.056l21.792,43.576C90.2,222.288,92.968,224,96,224s5.8-1.712,7.16-4.424
		L124.944,176H144c1.576,0,3.128-0.472,4.44-1.344L232,118.944v36.776L139.56,217.344z M464,312h-24v-96h-16v248h-32V312h-16v152
		h-32V224c0-2.672-1.336-5.168-3.56-6.656L248,155.72v-36.776l83.56,55.712c1.312,0.872,2.864,1.344,4.44,1.344h40v88h16v-88h48
		c13.232,0,24,10.768,24,24V312z"/>
	<polygon style="fill:#2A0E54;" points="248,80 248,64 264,64 264,48 248,48 248,32 232,32 232,48 216,48 216,64 232,64 232,80 	"/>
</g>
<g>
</g>
<g>
</g>
<g>
</g>
<g>
</g>
<g>
</g>
<g>
</g>
<g>
</g>
<g>
</g>
<g>
</g>
<g>
</g>
<g>
</g>
<g>
</g>
<g>
</g>
<g>
</g>
<g>
</g>
</svg>
